<?xml version="1.0" encoding="UTF-8"?>
<testng-results skipped="0" failed="0" ignored="0" total="1" passed="1">
  <reporter-output>
    <line>
      <![CDATA[User Name is found]]>
    </line>
    <line>
      <![CDATA[Password is found]]>
    </line>
    <line>
      <![CDATA[login Button is found]]>
    </line>
  </reporter-output>
  <suite name="Surefire suite" duration-ms="81173" started-at="2017-06-29T14:34:13Z" finished-at="2017-06-29T14:35:34Z">
    <groups>
    </groups>
    <test name="Surefire test" duration-ms="81173" started-at="2017-06-29T14:34:13Z" finished-at="2017-06-29T14:35:34Z">
      <class name="Testscripts.loginscript">
        <test-method status="PASS" signature="cleanScreenShotDirectory()[pri:0, instance:Testscripts.loginscript@78c03f1f]" name="cleanScreenShotDirectory" is-config="true" duration-ms="6030" started-at="2017-06-29T20:04:13Z" finished-at="2017-06-29T20:04:19Z">
          <reporter-output>
          </reporter-output>
        </test-method> <!-- cleanScreenShotDirectory -->
        <test-method status="PASS" signature="setUp(java.lang.reflect.Method)[pri:0, instance:Testscripts.loginscript@78c03f1f]" name="setUp" is-config="true" duration-ms="40490" started-at="2017-06-29T20:04:19Z" finished-at="2017-06-29T20:05:00Z">
          <params>
            <param index="0">
              <value>
                <![CDATA[public void Testscripts.loginscript.loginintoapplication() throws java.lang.Exception]]>
              </value>
            </param>
          </params>
          <reporter-output>
          </reporter-output>
        </test-method> <!-- setUp -->
        <test-method status="PASS" signature="loginintoapplication()[pri:0, instance:Testscripts.loginscript@78c03f1f]" name="loginintoapplication" duration-ms="25151" started-at="2017-06-29T20:05:00Z" finished-at="2017-06-29T20:05:25Z">
          <reporter-output>
            <line>
              <![CDATA[User Name is found]]>
            </line>
            <line>
              <![CDATA[Password is found]]>
            </line>
            <line>
              <![CDATA[login Button is found]]>
            </line>
          </reporter-output>
        </test-method> <!-- loginintoapplication -->
        <test-method status="PASS" signature="teardown(org.testng.ITestResult)[pri:0, instance:Testscripts.loginscript@78c03f1f]" name="teardown" is-config="true" duration-ms="4404" started-at="2017-06-29T20:05:25Z" finished-at="2017-06-29T20:05:29Z">
          <params>
            <param index="0">
              <value>
                <![CDATA[[TestResult name=loginintoapplication status=SUCCESS method=loginscript.loginintoapplication()[pri:0, instance:Testscripts.loginscript@78c03f1f] output=User Name is found]]]>
              </value>
            </param>
          </params>
          <reporter-output>
          </reporter-output>
        </test-method> <!-- teardown -->
        <test-method status="PASS" signature="copyScreenshotToSureFire()[pri:0, instance:Testscripts.loginscript@78c03f1f]" name="copyScreenshotToSureFire" is-config="true" duration-ms="5083" started-at="2017-06-29T20:05:29Z" finished-at="2017-06-29T20:05:34Z">
          <reporter-output>
          </reporter-output>
        </test-method> <!-- copyScreenshotToSureFire -->
      </class> <!-- Testscripts.loginscript -->
    </test> <!-- Surefire test -->
  </suite> <!-- Surefire suite -->
</testng-results>
