-------------------------------------------------------------------------------
Test set: Testscripts.loginscript
-------------------------------------------------------------------------------
Tests run: 1, Failures: 0, Errors: 0, Skipped: 0, Time elapsed: 81.646 s - in Testscripts.loginscript
